…
    ## [1] 2.665212

``` r
sim1_dist <- function(a1, a2) {
  measure_distance(c(a1, a2), sim1)
}

models <- models %>% 
  mutate(dist = map2_dbl(a1, a2, sim1_dist))

models
```

    ## # A tibble: 250 x 3
    ##        a1     a2  dist
    ##     <dbl>  <dbl> <dbl>
    ##  1  30.6   1.01  21.0 
    ##  2  21.7   2.39  19.4 
    ##  3  -6.22  2.87   6.75
    ##  4   3.15  3.73   9.70
    ##  5  33.4   0.734 22.4 
    ##  6  10.5   1.68   4.92
    ##  7   6.55  1.72   2.39
    ##  8 -19.0  -2.00  47.0 
    ##  9  37.5  -0.859 19.3 
    ## 10  10.7   3.64  16.0 
    ## # … with 240 more rows
…
# Formulas and Model Families

## Formulas to Functions

We saw in `lm()` that the formula `y ~ x` gets translated to the
function \(y = a_1 + a_2*x\). Internally R will convert this formula to
a *model matrix*.

``` r
model_matrix(sim1, y ~ x)
```

    ## # A tibble: 30 x 2
    ##    `(Intercept)`     x
    ##            <dbl> <dbl>
    ##  1             1     1
    ##  2             1     1
    ##  3             1     1
    ##  4             1     2
    ##  5             1     2
    ##  6             1     2
    ##  7             1     3
    ##  8             1     3
    ##  9             1     3
    ## 10             1     4
    ## # … with 20 more rows

``` r
model_matrix(sim1, y ~ x + I(x^2))
```

    ## # A tibble: 30 x 3
    ##    `(Intercept)`     x `I(x^2)`
    ##            <dbl> <dbl>    <dbl>
    ##  1             1     1        1
    ##  2             1     1        1
    ##  3             1     1        1
    ##  4             1     2        4
    ##  5             1     2        4
    ##  6             1     2        4
    ##  7             1     3        9
    ##  8             1     3        9
    ##  9             1     3        9
    ## 10             1     4       16
    ## # … with 20 more rows
…
## Questions

What does the model matrix look like for the formula `y ~ x1 + x2`?

``` r
model_matrix(sim3, y ~ x1 + x2)
```

    ## # A tibble: 120 x 5
    ##    `(Intercept)`    x1   x2b   x2c   x2d
    ##            <dbl> <dbl> <dbl> <dbl> <dbl>
    ##  1             1     1     0     0     0
    ##  2             1     1     0     0     0
    ##  3             1     1     0     0     0
    ##  4             1     1     1     0     0
    ##  5             1     1     1     0     0
    ##  6             1     1     1     0     0
    ##  7             1     1     0     1     0
    ##  8             1     1     0     1     0
    ##  9             1     1     0     1     0
    ## 10             1     1     0     0     1
    ## # … with 110 more rows

## The Interaction Term

Iteraction terms can be specified with `*`. Ex. `y ~ x1 * x2`.

``` r
model_matrix(sim3, y ~ x1 * x2)
```

    ## # A tibble: 120 x 8
    ##    `(Intercept)`    x1   x2b   x2c   x2d `x1:x2b` `x1:x2c` `x1:x2d`
    ##            <dbl> <dbl> <dbl> <dbl> <dbl>    <dbl>    <dbl>    <dbl>
    ##  1             1     1     0     0     0        0        0        0
    ##  2             1     1     0     0     0        0        0        0
    ##  3             1     1     0     0     0        0        0        0
    ##  4             1     1     1     0     0        1        0        0
    ##  5             1     1     1     0     0        1        0        0
    ##  6             1     1     1     0     0        1        0        0
    ##  7             1     1     0     1     0        0        1        0
    ##  8             1     1     0     1     0        0        1        0
    ##  9             1     1     0     1     0        0        1        0
    ## 10             1     1     0     0     1        0        0        1
    ## # … with 110 more rows
…
## Visualizing Interaction Models

1.  Build the grid

<!-- end list -->

``` r
grid <- sim3 %>% data_grid(x1, x2)
grid
```

    ## # A tibble: 40 x 2
    ##       x1 x2   
    ##    <int> <fct>
    ##  1     1 a    
    ##  2     1 b    
    ##  3     1 c    
    ##  4     1 d    
    ##  5     2 a    
    ##  6     2 b    
    ##  7     2 c    
    ##  8     2 d    
    ##  9     3 a    
    ## 10     3 b    
    ## # … with 30 more rows
…
1.  Build the grid with `data_grid()`
2.  Add predictions with `gather_predictions()`

<!-- end list -->

``` r
grid <- sim3 %>% 
  data_grid(x1, x2) %>% 
  gather_predictions("y ~ x1 + x2" = mod1, "y ~ x1 * x2" = mod2)

grid
```

    ## # A tibble: 80 x 4
    ##    model          x1 x2     pred
    ##    <chr>       <int> <fct> <dbl>
    ##  1 y ~ x1 + x2     1 a      1.67
    ##  2 y ~ x1 + x2     1 b      4.56
    ##  3 y ~ x1 + x2     1 c      6.48
    ##  4 y ~ x1 + x2     1 d      4.03
    ##  5 y ~ x1 + x2     2 a      1.48
    ##  6 y ~ x1 + x2     2 b      4.37
    ##  7 y ~ x1 + x2     2 c      6.28
    ##  8 y ~ x1 + x2     2 d      3.84
    ##  9 y ~ x1 + x2     3 a      1.28
    ## 10 y ~ x1 + x2     3 b      4.17
    ## # … with 70 more rows
…
grid <- sim4 %>% 
  data_grid(
    x1 = seq_range(x1, 5),
    x2 = seq_range(x2, 5)) %>% 
  gather_predictions(
    "y ~ x1 + x2" = mod1,
    "y ~ x1 * x2" = mod2
  )

grid
```

    ## # A tibble: 50 x 4
    ##    model          x1    x2   pred
    ##    <chr>       <dbl> <dbl>  <dbl>
    ##  1 y ~ x1 + x2  -1    -1    0.996
    ##  2 y ~ x1 + x2  -1    -0.5 -0.395
    ##  3 y ~ x1 + x2  -1     0   -1.79 
    ##  4 y ~ x1 + x2  -1     0.5 -3.18 
    ##  5 y ~ x1 + x2  -1     1   -4.57 
    ##  6 y ~ x1 + x2  -0.5  -1    1.91 
    ##  7 y ~ x1 + x2  -0.5  -0.5  0.516
    ##  8 y ~ x1 + x2  -0.5   0   -0.875
    ##  9 y ~ x1 + x2  -0.5   0.5 -2.27 
    ## 10 y ~ x1 + x2  -0.5   1   -3.66 
    ## # … with 40 more rows
…
